<?xml version="1.0" encoding="iso-8859-1"?>
<!-- Generator: Adobe Illustrator 19.0.0, SVG Export Plug-In . SVG Version: 6.00 Build 0)  -->
<svg version="1.1" id="Capa_1" xmlns="http://www.w3.org/2000/svg" xmlns:xlink="http://www.w3.org/1999/xlink" x="0px" y="0px"
	 viewBox="0 0 60 60" style="enable-background:new 0 0 60 60;" xml:space="preserve">
<g>
	<path d="M50.3,16.151c-4.884,0-8.926,3.632-9.593,8.335c-0.23-0.016-0.46-0.035-0.694-0.035c-0.143,0-0.281,0.015-0.422,0.021
		c-0.674-4.696-4.712-8.321-9.591-8.321c-4.882,0-8.922,3.629-9.592,8.329c-0.194-0.012-0.386-0.03-0.583-0.03
		c-0.18,0-0.356,0.017-0.534,0.027c-0.671-4.699-4.71-8.327-9.591-8.327c-5.349,0-9.7,4.352-9.7,9.7s4.352,9.7,9.7,9.7
		c0.18,0,0.356-0.017,0.534-0.027c0.671,4.699,4.71,8.327,9.591,8.327c4.882,0,8.922-3.629,9.592-8.329
		c0.194,0.012,0.386,0.03,0.583,0.03c0.143,0,0.281-0.015,0.422-0.021c0.673,4.696,4.711,8.321,9.591,8.321
		c4.884,0,8.926-3.632,9.593-8.335c0.23,0.016,0.46,0.035,0.694,0.035c5.349,0,9.7-4.352,9.7-9.7S55.648,16.151,50.3,16.151z
		 M2,25.851c0-4.246,3.454-7.7,7.7-7.7c3.886,0,7.099,2.895,7.618,6.64c-3.942,1.057-6.893,4.533-7.162,8.737
		c-0.151,0.009-0.302,0.023-0.456,0.023C5.454,33.551,2,30.097,2,25.851z M17.324,26.876c-0.39,2.916-2.415,5.316-5.123,6.25
		C12.592,30.21,14.616,27.81,17.324,26.876z M19.825,41.851c-3.886,0-7.099-2.895-7.618-6.64c3.942-1.057,6.893-4.533,7.162-8.737
		c0.152-0.009,0.302-0.023,0.456-0.023c0.171,0,0.338,0.015,0.506,0.026c0.269,4.186,3.197,7.65,7.114,8.722
		C26.932,38.95,23.715,41.851,19.825,41.851z M22.379,26.895c2.675,0.945,4.673,3.323,5.067,6.212
		C24.771,32.162,22.773,29.784,22.379,26.895z M29.494,33.526c-0.269-4.186-3.197-7.65-7.114-8.722
		c0.514-3.751,3.73-6.652,7.62-6.652c3.876,0,7.083,2.881,7.614,6.612c-3.997,1.022-7.001,4.526-7.27,8.771
		c-0.115,0.004-0.228,0.016-0.344,0.016C29.829,33.551,29.662,33.537,29.494,33.526z M37.63,26.832
		c-0.381,2.979-2.466,5.43-5.248,6.338C32.764,30.191,34.849,27.74,37.63,26.832z M40.013,41.851c-3.876,0-7.083-2.881-7.614-6.612
		c3.997-1.022,7.001-4.526,7.27-8.771c0.115-0.005,0.228-0.017,0.344-0.017c0.209,0,0.414,0.015,0.619,0.031
		c0.269,4.145,3.144,7.584,7.006,8.689C47.136,38.935,43.912,41.851,40.013,41.851z M42.686,26.939
		c2.602,0.968,4.539,3.299,4.941,6.124C45.025,32.095,43.088,29.764,42.686,26.939z M50.3,33.551c-0.209,0-0.414-0.015-0.619-0.031
		c-0.269-4.145-3.144-7.584-7.006-8.689c0.502-3.764,3.725-6.68,7.625-6.68c4.246,0,7.7,3.454,7.7,7.7S54.546,33.551,50.3,33.551z"
		/>
</g>
<g>
</g>
<g>
</g>
<g>
</g>
<g>
</g>
<g>
</g>
<g>
</g>
<g>
</g>
<g>
</g>
<g>
</g>
<g>
</g>
<g>
</g>
<g>
</g>
<g>
</g>
<g>
</g>
<g>
</g>
</svg>
