{
	"appId": "io.texdinamo.proclubapp",
	"appName": "ProClubApp",
	"bundledWebRuntime": false,
	"npmClient": "npm",
	"webDir": "www",
	"plugins": {
		"SplashScreen": {
			"launchShowDuration": 0,
			"launchAutoHide": false,
			"androidScaleType": "CENTER_CROP",
			"showSpinner": true,
			"splashFullScreen": false,
			"splashImmersive": false
		}
	},
	"cordova": {}
}
